week2 assignment
…
2.Devise a strategy for filling in all of the missing values in the dataset. The strategy does not need to be sophisticated. For example, you could use the mean/median for that day, or the mean for that 5-minute interval, etc.

library(magrittr)
library(dplyr)
 replacedata <- function(x)
         replace(x, is.na(x), mean(x, na.rm = TRUE))
 meandata <- data %>%
         group_by(interval)%>%
         mutate(steps = replacedata(steps))

3.Create a new dataset that is equal to the original dataset but with the missing data filled in

meandata

## # A tibble: 17,568 x 3
## # Groups:   interval [288]
##     steps date       interval
##     <dbl> <fct>         <int>
##  1 1.72   2012-10-01        0
##  2 0.340  2012-10-01        5
##  3 0.132  2012-10-01       10
##  4 0.151  2012-10-01       15
##  5 0.0755 2012-10-01       20
##  6 2.09   2012-10-01       25
##  7 0.528  2012-10-01       30
##  8 0.868  2012-10-01       35
##  9 0      2012-10-01       40
## 10 1.47   2012-10-01       45
## #  with 17,558 more rows
…
